projects/baula_04_02/UART_PicoWL_TX/wokwi-logic01.vcd
$version Generated by Wokwi.com $end
$date Wed, 22 Jan 2025 15:16:55 GMT $end
$timescale 1ns $end
$scope module logic $end
$var wire 1 ! D0 $end
$upscope $end
$enddefinitions $end
#0
0!
#301952
1!
#5440534224
0!
#5440542904
1!
#5440560264
0!
#5440594984
1!
#5440603664
0!
#5440612344
1!
#5440621024
0!
#5440629704
1!
#5440664424
0!
#5440673104
1!
#5440690464
0!
#5440699144
1!
#5440707824
0!
#5440725184
1!
#5440751224
0!
#5440759904
1!
#5440777264
0!
#5440785944
1!
#5440794624
0!
#5440820664
1!
#5440829344
0!
#5440838024
1!
#5440864064
0!
#5440872744
1!
#5440881424
0!
#5440890104
1!
#5440898784
0!
#5440933504
1!
#5440950864
0!
#5440959544
1!
#5440968224
0!
#5440976904
1!
#5441002944
0!
#5441020304
1!
#5441037664
0!
#5441046344
1!
#5441055024
0!
#5441063704
1!
#5441072384
0!
#5441081064
1!
#5441089744
0!
#5441107104
1!
#5441124464
0!
#5441133144
1!
#5441141824
0!
#5441150504
1!
#5441159192
0!
#5441167864
1!
#5441185224
0!
#5441193904
1!
#5441211264
0!
#5441219944
1!
#5441228624
0!
#5441245984
1!
#5441254664
0!
#5441263344
1!
#5441289384
0!
#5441306744
1!
#5441315424
0!
#5441367504
1!
#5441376184
0!
#5441393544
1!
#5441402224
0!
#5441410904
1!
#5441419584
0!
#5441445624
1!
#5441462984
0!
#5441480344
1!
#5441489024
0!
#5441506384
1!
#5441515064
0!
#5441523744
1!
#5441532424
0!
#5441567144
1!
#6380557248
0!
#6380565928
1!
#6380583288
0!
#6380618008
1!
#6380626688
0!
#6380635368
1!
#6380644048
0!
#6380652728
1!
#6380687448
0!
#6380696128
1!
#6380713488
0!
#6380722168
1!
#6380730848
0!
#6380748208
1!
#6380774248
0!
#6380782928
1!
#6380800288
0!
#6380808968
1!
#6380817648
0!
#6380843688
1!
#6380852368
0!
#6380861048
1!
#6380887088
0!
#6380895768
1!
#6380904448
0!
#6380913128
1!
#6380921808
0!
#6380956528
1!
#6380973888
0!
#6380982568
1!
#6380991248
0!
#6380999928
1!
#6381025968
0!
#6381043328
1!
#6381060688
0!
#6381069368
1!
#6381078048
0!
#6381086728
1!
#6381095408
0!
#6381104088
1!
#6381112768
0!
#6381130128
1!
#6381147488
0!
#6381156168
1!
#6381164848
0!
#6381173528
1!
#6381182208
0!
#6381190888
1!
#6381208248
0!
#6381216928
1!
#6381234288
0!
#6381242968
1!
#6381251648
0!
#6381269016
1!
#6381277688
0!
#6381286368
1!
#6381312408
0!
#6381329768
1!
#6381338448
0!
#6381390528
1!
#6381399208
0!
#6381416568
1!
#6381425248
0!
#6381442608
1!
#6381451288
0!
#6381468648
1!
#6381486008
0!
#6381503368
1!
#6381512048
0!
#6381529408
1!
#6381538088
0!
#6381546768
1!
#6381555448
0!
#6381590168
1!
#7430573240
0!
#7430581920
1!
#7430599280
0!
#7430634000
1!
#7430642680
0!
#7430651360
1!
#7430660040
0!
#7430668720
1!
#7430703440
0!
#7430712120
1!
#7430729480
0!
#7430738160
1!
#7430746840
0!
#7430764200
1!
#7430790240
0!
#7430798920
1!
#7430816280
0!
#7430824960
1!
#7430833640
0!
#7430859680
1!
#7430868360
0!
#7430877040
1!
#7430903112
0!
#7430911760
1!
#7430920440
0!
#7430929120
1!
#7430937800
0!
#7430972520
1!
#7430989880
0!
#7430998560
1!
#7431007240
0!
#7431015920
1!
#7431041960
0!
#7431059320
1!
#7431076680
0!
#7431085360
1!
#7431094040
0!
#7431102720
1!
#7431111400
0!
#7431120080
1!
#7431128760
0!
#7431146120
1!
#7431163480
0!
#7431172160
1!
#7431180840
0!
#7431189520
1!
#7431198200
0!
#7431206880
1!
#7431224240
0!
#7431232920
1!
#7431250280
0!
#7431258960
1!
#7431267640
0!
#7431285000
1!
#7431293680
0!
#7431302360
1!
#7431328400
0!
#7431345760
1!
#7431354440
0!
#7431406520
1!
#7431415200
0!
#7431432560
1!
#7431441240
0!
#7431449920
1!
#7431467280
0!
#7431484640
1!
#7431502000
0!
#7431519360
1!
#7431528040
0!
#7431545400
1!
#7431554080
0!
#7431562760
1!
#7431571440
0!
#7431606160
1!
#8480595208
0!
#8480603888
1!
#8480621248
0!
#8480655968
1!
#8480664648
0!
#8480673328
1!
#8480682008
0!
#8480690688
1!
#8480725408
0!
#8480734088
1!
#8480751448
0!
#8480760128
1!
#8480768808
0!
#8480786168
1!
#8480812208
0!
#8480820888
1!
#8480838248
0!
#8480846928
1!
#8480855608
0!
#8480881648
1!
#8480890328
0!
#8480899008
1!
#8480925048
0!
#8480933728
1!
#8480942408
0!
#8480951088
1!
#8480959768
0!
#8480994488
1!
#8481011848
0!
#8481020528
1!
#8481029208
0!
#8481037888
1!
#8481063928
0!
#8481081288
1!
#8481098648
0!
#8481107328
1!
#8481116008
0!
#8481124688
1!
#8481133368
0!
#8481142048
1!
#8481150728
0!
#8481168088
1!
#8481185448
0!
#8481194128
1!
#8481202808
0!
#8481211488
1!
#8481220168
0!
#8481228848
1!
#8481246208
0!
#8481254888
1!
#8481272248
0!
#8481280928
1!
#8481289608
0!
#8481306968
1!
#8481315648
0!
#8481324328
1!
#8481350368
0!
#8481367728
1!
#8481376408
0!
#8481428488
1!
#8481437168
0!
#8481454528
1!
#8481463208
0!
#8481489248
1!
#8481497928
0!
#8481506608
1!
#8481523968
0!
#8481541328
1!
#8481550008
0!
#8481567368
1!
#8481576048
0!
#8481584728
1!
#8481593408
0!
#8481628128
1!
#10280625264
0!
#10280633944
1!
#10280651304
0!
#10280686024
1!
#10280694704
0!
#10280703384
1!
#10280712064
0!
#10280720744
1!
#10280755464
0!
#10280764144
1!
#10280781504
0!
#10280790184
1!
#10280798864
0!
#10280816224
1!
#10280842264
0!
#10280850944
1!
#10280868304
0!
#10280876984
1!
#10280885664
0!
#10280911704
1!
#10280920384
0!
#10280929064
1!
#10280955104
0!
#10280963784
1!
#10280972464
0!
#10280981144
1!
#10280989824
0!
#10281024544
1!
#10281041904
0!
#10281050584
1!
#10281059264
0!
#10281067944
1!
#10281093984
0!
#10281111344
1!
#10281128704
0!
#10281137384
1!
#10281146064
0!
#10281154744
1!
#10281163424
0!
#10281172104
1!
#10281180784
0!
#10281198144
1!
#10281215504
0!
#10281224184
1!
#10281232864
0!
#10281241544
1!
#10281250224
0!
#10281258904
1!
#10281276264
0!
#10281284944
1!
#10281302304
0!
#10281310984
1!
#10281319664
0!
#10281337024
1!
#10281345704
0!
#10281354384
1!
#10281380424
0!
#10281397784
1!
#10281406464
0!
#10281458544
1!
#10281467224
0!
#10281484584
1!
#10281493264
0!
#10281501944
1!
#10281510624
0!
#10281519304
1!
#10281527984
0!
#10281536664
1!
#10281554024
0!
#10281571384
1!
#10281580064
0!
#10281597424
1!
#10281606104
0!
#10281614784
1!
#10281623464
0!
#10281658184
1!
#11580646184
0!
#11580654864
1!
#11580672224
0!
#11580706944
1!
#11580715624
0!
#11580724304
1!
#11580732984
0!
#11580741664
1!
#11580776384
0!
#11580785064
1!
#11580802424
0!
#11580811104
1!
#11580819784
0!
#11580837144
1!
#11580863184
0!
#11580871864
1!
#11580889224
0!
#11580897904
1!
#11580906584
0!
#11580932624
1!
#11580941304
0!
#11580949984
1!
#11580976024
0!
#11580984704
1!
#11580993384
0!
#11581002064
1!
#11581010744
0!
#11581045464
1!
#11581062824
0!
#11581071504
1!
#11581080184
0!
#11581088864
1!
#11581114904
0!
#11581132264
1!
#11581149624
0!
#11581158304
1!
#11581166984
0!
#11581175664
1!
#11581184344
0!
#11581193024
1!
#11581201704
0!
#11581219064
1!
#11581236424
0!
#11581245104
1!
#11581253784
0!
#11581262464
1!
#11581271144
0!
#11581279824
1!
#11581297184
0!
#11581305864
1!
#11581323224
0!
#11581331904
1!
#11581340584
0!
#11581357944
1!
#11581366624
0!
#11581375304
1!
#11581401344
0!
#11581418704
1!
#11581427384
0!
#11581479464
1!
#11581488144
0!
#11581505504
1!
#11581514184
0!
#11581531544
1!
#11581548904
0!
#11581557584
1!
#11581574944
0!
#11581592304
1!
#11581600984
0!
#11581618344
1!
#11581627024
0!
#11581635704
1!
#11581644384
0!
#11581679104
1!
#13853333536
1!
