projects/baula_04_02/UART_PicoWL_TX/wokwi-logicWilton01.vcd
$version Generated by Wokwi.com $end
$date Fri, 24 Jan 2025 14:14:12 GMT $end
$timescale 1ns $end
$scope module logic $end
$var wire 1 ! D0 $end
$upscope $end
$enddefinitions $end
#0
0!
#301952
1!
#960480200
0!
#960488880
1!
#960506240
0!
#960540960
1!
#960549640
0!
#960558320
1!
#960567000
0!
#960575680
1!
#960610400
0!
#960619080
1!
#960636440
0!
#960645120
1!
#960653800
0!
#960671160
1!
#960697200
0!
#960705880
1!
#960723240
0!
#960731920
1!
#960740600
0!
#960766640
1!
#960775320
0!
#960784000
1!
#960810040
0!
#960818720
1!
#960827400
0!
#960836080
1!
#960844760
0!
#960879480
1!
#960896840
0!
#960905520
1!
#960914200
0!
#960922880
1!
#960948920
0!
#960966280
1!
#960983640
0!
#960992320
1!
#961001000
0!
#961009680
1!
#961018360
0!
#961027040
1!
#961035720
0!
#961053080
1!
#961070440
0!
#961079120
1!
#961087800
0!
#961096480
1!
#961105160
0!
#961113840
1!
#961131200
0!
#961139880
1!
#961157240
0!
#961165920
1!
#961174600
0!
#961191960
1!
#961200640
0!
#961209320
1!
#961235360
0!
#961252720
1!
#961261400
0!
#961313480
1!
#961322160
0!
#961339520
1!
#961348200
0!
#961356880
1!
#961365560
0!
#961391600
1!
#961408960
0!
#961426320
1!
#961435000
0!
#961452360
1!
#961461040
0!
#961469720
1!
#961478400
0!
#961513120
1!
#1450515488
0!
#1450524168
1!
#1450541528
0!
#1450576248
1!
#1450584928
0!
#1450593608
1!
#1450602288
0!
#1450610968
1!
#1450645688
0!
#1450654368
1!
#1450671728
0!
#1450680408
1!
#1450689088
0!
#1450706448
1!
#1450732488
0!
#1450741168
1!
#1450758528
0!
#1450767208
1!
#1450775888
0!
#1450801928
1!
#1450810608
0!
#1450819288
1!
#1450845328
0!
#1450854008
1!
#1450862688
0!
#1450871368
1!
#1450880048
0!
#1450914768
1!
#1450932128
0!
#1450940808
1!
#1450949488
0!
#1450958168
1!
#1450984208
0!
#1451001568
1!
#1451018928
0!
#1451027608
1!
#1451036288
0!
#1451044968
1!
#1451053648
0!
#1451062328
1!
#1451071008
0!
#1451088368
1!
#1451105728
0!
#1451114408
1!
#1451123088
0!
#1451131768
1!
#1451140448
0!
#1451149128
1!
#1451166488
0!
#1451175168
1!
#1451192528
0!
#1451201208
1!
#1451209888
0!
#1451227248
1!
#1451235928
0!
#1451244608
1!
#1451270648
0!
#1451288008
1!
#1451296688
0!
#1451348768
1!
#1451357448
0!
#1451374808
1!
#1451383488
0!
#1451400848
1!
#1451409528
0!
#1451426888
1!
#1451444248
0!
#1451461608
1!
#1451470288
0!
#1451487648
1!
#1451496328
0!
#1451505008
1!
#1451513688
0!
#1451548408
1!
#2090541184
0!
#2090549864
1!
#2090567224
0!
#2090601944
1!
#2090610624
0!
#2090619304
1!
#2090627984
0!
#2090636664
1!
#2090671384
0!
#2090680064
1!
#2090697424
0!
#2090706104
1!
#2090714784
0!
#2090732144
1!
#2090758184
0!
#2090766864
1!
#2090784224
0!
#2090792904
1!
#2090801584
0!
#2090827624
1!
#2090836304
0!
#2090844984
1!
#2090871024
0!
#2090879704
1!
#2090888384
0!
#2090897064
1!
#2090905744
0!
#2090940464
1!
#2090957824
0!
#2090966504
1!
#2090975184
0!
#2090983864
1!
#2091009904
0!
#2091027264
1!
#2091044624
0!
#2091053304
1!
#2091061984
0!
#2091070664
1!
#2091079344
0!
#2091088024
1!
#2091096704
0!
#2091114064
1!
#2091131424
0!
#2091140104
1!
#2091148784
0!
#2091157464
1!
#2091166144
0!
#2091174824
1!
#2091192184
0!
#2091200864
1!
#2091218224
0!
#2091226904
1!
#2091235584
0!
#2091252944
1!
#2091261624
0!
#2091270304
1!
#2091296344
0!
#2091313704
1!
#2091322384
0!
#2091374464
1!
#2091383144
0!
#2091400504
1!
#2091409184
0!
#2091417864
1!
#2091435224
0!
#2091452584
1!
#2091469944
0!
#2091487304
1!
#2091495984
0!
#2091513344
1!
#2091522024
0!
#2091530704
1!
#2091539384
0!
#2091574104
1!
#2440550272
0!
#2440558952
1!
#2440576312
0!
#2440611032
1!
#2440619712
0!
#2440628392
1!
#2440637072
0!
#2440645752
1!
#2440680472
0!
#2440689152
1!
#2440706512
0!
#2440715192
1!
#2440723872
0!
#2440741232
1!
#2440767272
0!
#2440775952
1!
#2440793312
0!
#2440801992
1!
#2440810672
0!
#2440836712
1!
#2440845392
0!
#2440854072
1!
#2440880112
0!
#2440888792
1!
#2440897472
0!
#2440906152
1!
#2440914832
0!
#2440949552
1!
#2440966912
0!
#2440975592
1!
#2440984272
0!
#2440992952
1!
#2441018992
0!
#2441036352
1!
#2441053712
0!
#2441062392
1!
#2441071072
0!
#2441079752
1!
#2441088432
0!
#2441097112
1!
#2441105792
0!
#2441123152
1!
#2441140512
0!
#2441149192
1!
#2441157872
0!
#2441166552
1!
#2441175232
0!
#2441183912
1!
#2441201272
0!
#2441209952
1!
#2441227312
0!
#2441235992
1!
#2441244672
0!
#2441262032
1!
#2441270712
0!
#2441279392
1!
#2441305432
0!
#2441322792
1!
#2441331488
0!
#2441383568
1!
#2441392248
0!
#2441409608
1!
#2441418288
0!
#2441444328
1!
#2441453008
0!
#2441461688
1!
#2441479048
0!
#2441496408
1!
#2441505088
0!
#2441522448
1!
#2441531128
0!
#2441539808
1!
#2441548488
0!
#2441583208
1!
#2820570480
0!
#2820579184
1!
#2820596520
0!
#2820631288
1!
#2820639920
0!
#2820648600
1!
#2820657280
0!
#2820665960
1!
#2820700680
0!
#2820709360
1!
#2820726720
0!
#2820735400
1!
#2820744080
0!
#2820761440
1!
#2820787480
0!
#2820796160
1!
#2820813520
0!
#2820822200
1!
#2820830880
0!
#2820856920
1!
#2820865600
0!
#2820874280
1!
#2820900320
0!
#2820909000
1!
#2820917680
0!
#2820926360
1!
#2820935040
0!
#2820969760
1!
#2820987120
0!
#2820995800
1!
#2821004480
0!
#2821013176
1!
#2821039200
0!
#2821056568
1!
#2821073920
0!
#2821082600
1!
#2821091280
0!
#2821099960
1!
#2821108640
0!
#2821117320
1!
#2821126000
0!
#2821143360
1!
#2821160720
0!
#2821169400
1!
#2821178080
0!
#2821186760
1!
#2821195440
0!
#2821204120
1!
#2821221480
0!
#2821230160
1!
#2821247520
0!
#2821256200
1!
#2821264880
0!
#2821282240
1!
#2821290920
0!
#2821299600
1!
#2821325640
0!
#2821343000
1!
#2821351680
0!
#2821403760
1!
#2821412440
0!
#2821429800
1!
#2821438480
0!
#2821447160
1!
#2821455840
0!
#2821464520
1!
#2821473200
0!
#2821481880
1!
#2821499240
0!
#2821516600
1!
#2821525280
0!
#2821542640
1!
#2821551320
0!
#2821560000
1!
#2821568680
0!
#2821603400
1!
#3370592256
0!
#3370600936
1!
#3370618296
0!
#3370653016
1!
#3370661696
0!
#3370670376
1!
#3370679056
0!
#3370687736
1!
#3370722456
0!
#3370731136
1!
#3370748496
0!
#3370757176
1!
#3370765856
0!
#3370783216
1!
#3370809256
0!
#3370817936
1!
#3370835296
0!
#3370843976
1!
#3370852656
0!
#3370878696
1!
#3370887376
0!
#3370896056
1!
#3370922096
0!
#3370930776
1!
#3370939456
0!
#3370948136
1!
#3370956816
0!
#3370991536
1!
#3371008896
0!
#3371017576
1!
#3371026256
0!
#3371034936
1!
#3371060976
0!
#3371078336
1!
#3371095696
0!
#3371104376
1!
#3371113056
0!
#3371121736
1!
#3371130416
0!
#3371139096
1!
#3371147776
0!
#3371165136
1!
#3371182496
0!
#3371191176
1!
#3371199856
0!
#3371208536
1!
#3371217216
0!
#3371225896
1!
#3371243256
0!
#3371251936
1!
#3371269296
0!
#3371277976
1!
#3371286656
0!
#3371304016
1!
#3371312720
0!
#3371321376
1!
#3371347416
0!
#3371364776
1!
#3371373456
0!
#3371425536
1!
#3371434216
0!
#3371451576
1!
#3371460256
0!
#3371477616
1!
#3371494976
0!
#3371503656
1!
#3371521016
0!
#3371538376
1!
#3371547056
0!
#3371564416
1!
#3371573096
0!
#3371581776
1!
#3371590456
0!
#3371625176
1!
#3800614272
0!
#3800622952
1!
#3800640312
0!
#3800675032
1!
#3800683712
0!
#3800692392
1!
#3800701072
0!
#3800709752
1!
#3800744472
0!
#3800753152
1!
#3800770512
0!
#3800779192
1!
#3800787872
0!
#3800805232
1!
#3800831272
0!
#3800839952
1!
#3800857312
0!
#3800865992
1!
#3800874672
0!
#3800900712
1!
#3800909392
0!
#3800918072
1!
#3800944112
0!
#3800952792
1!
#3800961472
0!
#3800970152
1!
#3800978832
0!
#3801013552
1!
#3801030912
0!
#3801039592
1!
#3801048272
0!
#3801056952
1!
#3801082992
0!
#3801100352
1!
#3801117712
0!
#3801126392
1!
#3801135072
0!
#3801143752
1!
#3801152432
0!
#3801161112
1!
#3801169792
0!
#3801187152
1!
#3801204512
0!
#3801213192
1!
#3801221872
0!
#3801230552
1!
#3801239232
0!
#3801247912
1!
#3801265272
0!
#3801273952
1!
#3801291312
0!
#3801299992
1!
#3801308680
0!
#3801326040
1!
#3801334720
0!
#3801343400
1!
#3801369440
0!
#3801386800
1!
#3801395480
0!
#3801447560
1!
#3801456240
0!
#3801473600
1!
#3801482280
0!
#3801490960
1!
#3801517000
0!
#3801525680
1!
#3801543040
0!
#3801560400
1!
#3801569080
0!
#3801586440
1!
#3801595120
0!
#3801603800
1!
#3801612480
0!
#3801647200
1!
#4330638224
0!
#4330646904
1!
#4330664264
0!
#4330699000
1!
#4330707664
0!
#4330716344
1!
#4330725024
0!
#4330733704
1!
#4330768424
0!
#4330777104
1!
#4330794464
0!
#4330803144
1!
#4330811824
0!
#4330829184
1!
#4330855224
0!
#4330863904
1!
#4330881264
0!
#4330889944
1!
#4330898624
0!
#4330924664
1!
#4330933344
0!
#4330942024
1!
#4330968064
0!
#4330976744
1!
#4330985424
0!
#4330994104
1!
#4331002784
0!
#4331037504
1!
#4331054864
0!
#4331063544
1!
#4331072224
0!
#4331080904
1!
#4331106944
0!
#4331124304
1!
#4331141664
0!
#4331150344
1!
#4331159024
0!
#4331167704
1!
#4331176384
0!
#4331185064
1!
#4331193744
0!
#4331211104
1!
#4331228464
0!
#4331237144
1!
#4331245824
0!
#4331254504
1!
#4331263184
0!
#4331271864
1!
#4331289224
0!
#4331297904
1!
#4331315264
0!
#4331323944
1!
#4331332624
0!
#4331349984
1!
#4331358664
0!
#4331367344
1!
#4331393384
0!
#4331410744
1!
#4331419424
0!
#4331471504
1!
#4331480184
0!
#4331497544
1!
#4331506224
0!
#4331540944
1!
#4331566984
0!
#4331584344
1!
#4331593024
0!
#4331610384
1!
#4331619064
0!
#4331627744
1!
#4331636424
0!
#4331671144
1!
#6287366768
1!
